431 Project B Sample Study 2 Report – 431 Project B
…
No subject is missing more than one variable, as we can tell from the table below, sorted by n_miss.

miss_case_summary(hbp_study)

# A tibble: 999 × 3
    case n_miss pct_miss
   <int>  <int>    <dbl>
 1    10      1     8.33
 2    26      1     8.33
 3    31      1     8.33
 4    33      1     8.33
 5    42      1     8.33
 6    66      1     8.33
 7    67      1     8.33
 8    77      1     8.33
 9    85      1     8.33
10   161      1     8.33
# ℹ 989 more rows
So we’ll lose 23 + 8 + 5 = 36 observations from our sample of 999 in dropping all cases with missing values, leaving us with a complete cases tibble of 963 rows.

2.7.3 The Complete Cases Tibble

My complete case data set would then be something like this:

hbp_cc <- hbp_study |>
  select(subj_id, sbp2, sbp1, age, sex, 
         diabetes, nbhd_ses, bmi1, insurance, 
         tobacco, statin, diuretic) |>
  drop_na()

hbp_cc

# A tibble: 963 × 12
   subj_id  sbp2  sbp1   age sex   diabetes nbhd_ses  bmi1 insurance tobacco
   <chr>   <dbl> <dbl> <dbl> <fct> <fct>    <fct>    <dbl> <fct>     <fct>  
 1 A0001     138   147    58 F     No       Low       24.4 Medicaid  never  
 2 A0004     134   134    65 F     No       Very Low  50.5 Medicaid  never  
 3 A0005     140   170    61 F     Yes      Very Low  29.8 Medicaid  current
 4 A0013     143   118    51 M     No       Very Low  41.8 Medicaid  quit   
 5 A0015     162   132    61 F     No       Very Low  31.0 Medicaid  never  
 6 A0017     141   110    45 F     No       Low       33.0 Medicaid  current
 7 A0018     101   127    40 F     Yes      Very Low  36.3 Medicaid  never  
 8 A0019     154   152    50 F     Yes      Middle    30.8 Medicaid  never  
 9 A0020     111   125    43 M     No       Low       23.1 Medicaid  current
10 A0028     154   140    56 F     No       Low       36.5 Medicaid  quit   
# ℹ 953 more rows
# ℹ 2 more variables: statin <dbl>, diuretic <dbl>
…
Note: I’ve demonstrated this task for a larger set of predictors than I actually intend to use. In fitting my models, I actually plan only to use five predictors: sbp1, age, bmi1, diabetes and tobacco to model my outcome: sbp2.

For what follows, I’ll focus only on the variables I actually will use in the analyses.

hbp_analytic <- hbp_cc |>
  select(subj_id, sbp2, sbp1, age, bmi1, diabetes, tobacco) 

3.2 Analytic Tibble

First, we’ll provide a printout of the tibble, which will confirm that we have one.

hbp_analytic

# A tibble: 963 × 7
   subj_id  sbp2  sbp1   age  bmi1 diabetes tobacco
   <chr>   <dbl> <dbl> <dbl> <dbl> <fct>    <fct>  
 1 A0001     138   147    58  24.4 No       never  
 2 A0004     134   134    65  50.5 No       never  
 3 A0005     140   170    61  29.8 Yes      current
 4 A0013     143   118    51  41.8 No       quit   
 5 A0015     162   132    61  31.0 No       never  
 6 A0017     141   110    45  33.0 No       current
 7 A0018     101   127    40  36.3 Yes      never  
 8 A0019     154   152    50  30.8 Yes      never  
 9 A0020     111   125    43  23.1 No       current
10 A0028     154   140    56  36.5 No       quit   
# ℹ 953 more rows
…
